Access the Clash of Clans API • clash
…
This returns clan-level attributes, such as lists of members in the clan:

clan$member_list
#> [[1]]
#> # A tibble: 22 × 15
#>    tag        name            role  townHallLevel expLevel league       trophies
#>    <chr>      <chr>           <chr>         <int>    <int> <list>          <int>
#>  1 #JY2J2QP2  Evan1125        lead…            14      209 <named list>     3134
#>  2 #92GCQQYP  christopher26   coLe…            14      210 <named list>     2534
#>  3 #LP0VGC92  bailey          coLe…            12      157 <named list>     2461
#>  4 #YQPCQ9RY  Regal           coLe…            12      156 <named list>     2276
#>  5 #LCJQ0Y2CR Cefola          coLe…            11      116 <named list>     2210
#>  6 #8L9L0YL8Y Fiore           coLe…            13      158 <named list>     2206
#>  7 #9RCGLLLY  Christopher0626 admin            11      142 <named list>     1996
#>  8 #UUUPL8G9  ziren           coLe…            10      120 <named list>     1700
#>  9 #9V8L98V   My Dad          memb…            10      107 <named list>     1656
#> 10 #LR00J0V0  J$              admin            11      126 <named list>     1604
#> # ℹ 12 more rows
#> # ℹ 8 more variables: builderBaseTrophies <int>, clanRank <int>,
#> #   previousClanRank <int>, donations <int>, donationsReceived <int>,
#> #   playerHouse <list>, builderBaseLeague_id <int>,
#> #   builderBaseLeague_name <chr>
…
