…
This returns clan-level attributes, such as lists of members in the
clan:

``` r
clan$member_list
#> [[1]]
#> # A tibble: 30 × 15
#>    tag        name      role  expLevel league       trophies builderBaseTrophies
#>    <chr>      <chr>     <chr>    <int> <list>          <int>               <int>
#>  1 #LVRULQ0   nick8997  coLe…      209 <named list>     4227                3795
#>  2 #92GCQQYP  christop… coLe…      209 <named list>     4135                3329
#>  3 #QVLJUUU2  OnePunch… coLe…      192 <named list>     3758                4303
#>  4 #JY2J2QP2  Evan1125  lead…      209 <named list>     3524                4050
#>  5 #LP0VGC92  bailey    coLe…      156 <named list>     2619                3551
#>  6 #JCPG0YC9  ZaeCraze… memb…      164 <named list>     2578                2625
#>  7 #8L9L0YL8Y Fiore     coLe…      157 <named list>     2354                3536
#>  8 #LCJQ0Y2CR Cefola    coLe…      116 <named list>     2305                2859
#>  9 #YQPCQ9RY  Regal     coLe…      156 <named list>     2276                2666
#> 10 #9RCGLLLY  Christop… admin      142 <named list>     1996                1733
#> # ℹ 20 more rows
#> # ℹ 8 more variables: versusTrophies <int>, clanRank <int>,
#> #   previousClanRank <int>, donations <int>, donationsReceived <int>,
#> #   playerHouse <list>, builderBaseLeague_id <int>,
#> #   builderBaseLeague_name <chr>
```
…
